Division,WeightClassKg,Place,Name,Team,BodyweightKg,Best3SquatKg,Best3BenchKg,Best3DeadliftKg,TotalKg,Equipment,Event,Sex,BirthDate
Boys,55.79,1,Justin Hurst,Fort Worth Western Hills,55.79,129.27,70.31,131.54,331.12,Unlimited,SBD,M,
Boys,55.79,2,Alexis Yakobo,Fort Worth Western Hills,53.52,120.2,65.77,129.27,315.25,Unlimited,SBD,M,
Boys,55.79,3,Naing Lin,Fort Worth Polytechnic,55.79,129.27,68.04,92.99,290.3,Unlimited,SBD,M,
Boys,67.13,1,Orylyn Crockett,Fort Worth Western Hills,66.68,147.42,102.06,142.88,392.36,Unlimited,SBD,M,
Boys,67.13,2,Julian Alfaro,Fort Worth Polytechnic,64.41,131.54,97.52,147.42,376.48,Unlimited,SBD,M,
Boys,67.13,3,James Queen,Fort Worth Polytechnic,66.22,117.93,74.84,142.88,335.66,Unlimited,SBD,M,
Boys,67.13,4,Jesus Guzman,Fort Worth Diamond Hill-Jarvis,63.05,120.2,72.57,140.61,333.39,Unlimited,SBD,M,
Boys,74.84,1,Leonel Lopez,Fort Worth Eastern Hills,70.31,151.95,138.35,201.85,492.15,Unlimited,SBD,M,
Boys,74.84,2,Jan Wade,Fort Worth Polytechnic,74.39,158.76,83.91,167.83,410.5,Unlimited,SBD,M,
Boys,82.1,1,Jose Rosas,Fort Worth Polytechnic,80.74,238.14,145.15,238.14,621.42,Unlimited,SBD,M,
Boys,82.1,2,Delon Hughes,Fort Worth Eastern Hills,77.11,142.88,92.99,197.31,433.18,Unlimited,SBD,M,
Boys,82.1,3,Brycen Foster,Fort Worth Western Hills,78.93,151.95,97.52,181.44,430.91,Unlimited,SBD,M,
Boys,82.1,4,Jacob Bryant,Fort Worth Western Hills,81.19,151.95,92.99,174.63,419.57,Unlimited,SBD,M,
Boys,82.1,5,Patrick Broughton,Fort Worth Western Hills,81.65,147.42,92.99,147.42,387.82,Unlimited,SBD,M,
Boys,89.81,1,Makeio McKenzie,Fort Worth Eastern Hills,88.45,238.14,156.49,219.99,614.62,Unlimited,SBD,M,
Boys,89.81,2,Jakobi McIntyre,Fort Worth Eastern Hills,87.09,161.03,106.59,206.38,474,Unlimited,SBD,M,
Boys,89.81,3,Hector Jimenez,Fort Worth Diamond Hill-Jarvis,89.36,124.74,70.31,161.03,356.07,Unlimited,SBD,M,
Boys,89.81,4,Ivan Rodriguez,Fort Worth Diamond Hill-Jarvis,85.28,102.06,79.38,145.15,326.59,Unlimited,SBD,M,
Boys,99.79,1,Josh Raga,Fort Worth Western Hills,99.34,242.67,142.88,208.65,594.21,Unlimited,SBD,M,
Boys,99.79,2,Gbati Nadjombe,Fort Worth Polytechnic,94.35,174.63,83.91,192.78,451.32,Unlimited,SBD,M,
Boys,99.79,3,Daniel Nyakundi,Fort Worth Eastern Hills,95.25,161.03,106.59,165.56,433.18,Unlimited,SBD,M,
Boys,99.79,4,Josiah Pena,Fort Worth Western Hills,90.72,147.42,95.25,136.08,378.75,Unlimited,SBD,M,
Boys,109.77,1,Mauricio Martinez,Fort Worth Western Hills,107.05,151.95,92.99,165.56,410.5,Unlimited,SBD,M,
Boys,109.77,2,Ricardo Almarez,Fort Worth Western Hills,105.69,136.08,88.45,142.88,367.41,Unlimited,SBD,M,
Boys,109.77,3,Yurem Ledezma,Fort Worth Diamond Hill-Jarvis,105.69,102.06,61.23,154.22,317.51,Unlimited,SBD,M,
Boys,124.74,1,Kevin Cruz,Fort Worth Western Hills,113.4,265.35,165.56,219.99,650.91,Unlimited,SBD,M,
Boys,124.74,2,Jordan Murray,Fort Worth Eastern Hills,110.22,174.63,113.4,213.19,501.22,Unlimited,SBD,M,
Boys,124.74,3,Anthony Rodriguez,Fort Worth Western Hills,116.12,161.03,111.13,183.7,455.86,Unlimited,SBD,M,
Boys,139.71,1,Kody Manning,Fort Worth Polytechnic,139.25,190.51,131.54,181.44,503.49,Unlimited,SBD,M,
Boys,139.71,2,Erik Arellano,Fort Worth Diamond Hill-Jarvis,137.44,115.67,70.31,161.03,347,Unlimited,SBD,M,
