Division,WeightClassKg,Place,Name,Team,BodyweightKg,Best3SquatKg,Best3BenchKg,Best3DeadliftKg,TotalKg,Equipment,Event,Sex
Boys,51.71,1,Hutch Rabenaldt,Marion,51.48,127.01,88.45,136.08,351.53,Single-ply,SBD,M
Boys,51.71,2,Donovan Hawkins,Natalia,50.89,129.27,68.04,129.27,326.59,Single-ply,SBD,M
Boys,51.71,3,Wyatt Owens,Natalia,49.58,99.79,45.36,120.2,265.35,Single-ply,SBD,M
Boys,55.79,1,Carlos Garcia Alanis,San Antonio Southwest Legacy,55.61,117.93,61.23,149.69,328.85,Single-ply,SBD,M
Boys,55.79,2,Noah Gilkey,Natalia,54.7,117.93,65.77,122.47,306.17,Single-ply,SBD,M
Boys,59.87,1,Ryan Juarez,Natalia,59.19,170.1,97.52,181.44,449.06,Single-ply,SBD,M
Boys,59.87,2,Kaleb Zertuche,Devine,59.33,142.88,102.06,195.04,439.98,Single-ply,SBD,M
Boys,59.87,3,Ernesto Rangel,San Antonio Southwest Legacy,57.56,156.49,88.45,179.17,424.11,Single-ply,SBD,M
Boys,59.87,4,Jacob Ricks,Pleasanton,59.42,122.47,77.11,136.08,335.66,Single-ply,SBD,M
Boys,59.87,5,Justin Beal,Bandera,58.69,129.27,77.11,124.74,331.12,Single-ply,SBD,M
Boys,59.87,6,David Salinas,San Antonio Southwest Legacy,58.97,115.67,72.57,136.08,324.32,Single-ply,SBD,M
Boys,59.87,7,Jacob Haas,Bandera,57.79,124.74,58.97,136.08,319.78,Single-ply,SBD,M
Boys,59.87,DQ,Jackson Faradjo,Bandera,58.38,120.2,,,,Single-ply,SBD,M
Boys,67.13,1,Adrian Vasquez,Natalia,66.95,206.38,102.06,219.99,528.44,Single-ply,SBD,M
Boys,67.13,2,Brian Burns,Bandera,66.27,190.51,99.79,188.24,478.54,Single-ply,SBD,M
Boys,67.13,3,Bartolo Gregorio,Natalia,65.5,185.97,90.72,174.63,451.32,Single-ply,SBD,M
Boys,67.13,4,Saul Valadez,Natalia,66.27,167.83,102.06,167.83,437.72,Single-ply,SBD,M
Boys,67.13,5,Roberto Curiel,Natalia,64.05,167.83,92.99,170.1,430.91,Single-ply,SBD,M
Boys,67.13,6,Cameron Kistner,Marion,65.77,165.56,83.91,151.95,401.43,Single-ply,SBD,M
Boys,67.13,7,Lorenzo Barfield,San Antonio Southwest Legacy,61.51,140.61,83.91,167.83,392.36,Single-ply,SBD,M
Boys,67.13,8,Hunter Young #1,Marion,64.77,131.54,77.11,183.7,392.36,Single-ply,SBD,M
Boys,67.13,9,Landon McDole,Natalia,66.36,140.61,92.99,142.88,376.48,Single-ply,SBD,M
Boys,67.13,10,Aaron Urrutia,Del Rio,63.78,120.2,88.45,165.56,374.21,Single-ply,SBD,M
Boys,67.13,11,Matt Staton,Bandera,63.55,140.61,79.38,149.69,369.68,Single-ply,SBD,M
Boys,67.13,12,Harrison Gaenzel,Pleasanton,64.05,136.08,74.84,140.61,351.53,Single-ply,SBD,M
Boys,67.13,13,Cody Jureczki,Bandera,61.05,106.59,52.16,106.59,265.35,Single-ply,SBD,M
Boys,67.13,DQ,Justin Rozier,Devine,62.55,108.86,,,,Single-ply,SBD,M
Boys,67.13,DQ,Demetrios Monreal,Devine,63.64,,,,,Single-ply,SBD,M
Boys,67.13,DQ,Patrick Almond,Comal Canyon Lake,64.64,142.88,81.65,,,Single-ply,SBD,M
Boys,74.84,1,Ray Rayos,Marion,73.16,183.7,115.67,235.87,535.24,Single-ply,SBD,M
Boys,74.84,2,Steve Mendiola,Bandera,74.71,165.56,131.54,210.92,508.02,Single-ply,SBD,M
Boys,74.84,3,Caleb Almond,Comal Canyon Lake,71.85,167.83,117.93,181.44,467.2,Single-ply,SBD,M
Boys,74.84,4,Xavier Vasquez,Natalia,72.98,183.7,92.99,174.63,451.32,Single-ply,SBD,M
Boys,74.84,5,Isaac Rios,Natalia,72.44,149.69,88.45,183.7,421.84,Single-ply,SBD,M
Boys,74.84,6,Isaac Duenez,Natalia,69.99,147.42,97.52,167.83,412.77,Single-ply,SBD,M
Boys,74.84,7,Jared Stallworth,Natalia,70.9,156.49,86.18,156.49,399.16,Single-ply,SBD,M
Boys,74.84,8,Derek Wiatrek,Comal Canyon Lake,69.94,136.08,97.52,154.22,387.82,Single-ply,SBD,M
Boys,74.84,9,Jacob Guajardo,Devine,70.67,145.15,74.84,142.88,362.87,Single-ply,SBD,M
Boys,74.84,10,Weston Price,Pleasanton,74.71,129.27,83.91,133.81,347,Single-ply,SBD,M
Boys,82.1,1,Leif Griffin,San Antonio Southwest,79.97,285.76,136.08,235.87,657.71,Single-ply,SBD,M
Boys,82.1,2,Weston Warschak,Columbus,81.1,208.65,124.74,201.85,535.24,Single-ply,SBD,M
Boys,82.1,3,Ryan Pena,San Antonio Southwest,76.25,188.24,115.67,199.58,503.49,Single-ply,SBD,M
Boys,82.1,4,Joel Rios,Natalia,80.51,192.78,99.79,208.65,501.22,Single-ply,SBD,M
Boys,82.1,5,Joseph Sulaica,Del Rio,79.29,167.83,124.74,190.51,483.08,Single-ply,SBD,M
Boys,82.1,6,Matthew Contreras,Natalia,81.15,192.78,106.59,172.37,471.74,Single-ply,SBD,M
Boys,82.1,7,Joel Mendez,Natalia,78.34,181.44,104.33,183.7,469.47,Single-ply,SBD,M
Boys,82.1,8,Jonathon Mabs,Marion,79.47,179.17,102.06,179.17,460.4,Single-ply,SBD,M
Boys,82.1,9,Brad Martin,Natalia,79.74,183.7,88.45,183.7,455.86,Single-ply,SBD,M
Boys,82.1,10,Colby Kennedy,Bandera,80.24,172.37,95.25,176.9,444.52,Single-ply,SBD,M
Boys,82.1,11,Xavier Vega,Pleasanton,77.38,151.95,102.06,183.7,437.72,Single-ply,SBD,M
Boys,82.1,12,Devin Orenelas,Devine,75.43,158.76,117.93,154.22,430.91,Single-ply,SBD,M
Boys,82.1,13,Joseph Hernandez #1,Devine,77.47,156.49,86.18,183.7,426.38,Single-ply,SBD,M
Boys,82.1,14,Hector Gomez,Del Rio,81.1,154.22,113.4,158.76,426.38,Single-ply,SBD,M
Boys,82.1,15,Dj Chapman,Ingram Moore,80.92,142.88,95.25,170.1,408.23,Single-ply,SBD,M
Boys,82.1,DQ,Kyle Kroeker,Ingram Moore,78.02,158.76,120.2,,,Single-ply,SBD,M
Boys,82.1,DQ,Nicolas Padilla,Del Rio,80.78,176.9,131.54,,,Single-ply,SBD,M
Boys,89.81,1,Edward Kierstead,San Antonio Southwest,88.99,249.48,165.56,215.46,630.49,Single-ply,SBD,M
Boys,89.81,2,Tucker Walters,Marion,88.68,210.92,129.27,267.62,607.81,Single-ply,SBD,M
Boys,89.81,3,Francisco Duran,Marion,89.72,233.6,131.54,219.99,585.13,Single-ply,SBD,M
Boys,89.81,4,Alejandro Flores,Del Rio,89.4,210.92,133.81,229.06,573.79,Single-ply,SBD,M
Boys,89.81,5,Zakary Widenor,Bandera,88.68,222.26,113.4,231.33,566.99,Single-ply,SBD,M
Boys,89.81,6,Jordan Lara,Knippa,89.4,206.38,131.54,229.06,566.99,Single-ply,SBD,M
Boys,89.81,7,Miguel Costilla,Del Rio,85.91,206.38,131.54,201.85,539.77,Single-ply,SBD,M
Boys,89.81,8,Gregorio Mendez,Natalia,83.96,199.58,117.93,192.78,510.29,Single-ply,SBD,M
Boys,89.81,9,Fabian Ruiz,Natalia,84.01,188.24,95.25,210.92,494.42,Single-ply,SBD,M
Boys,89.81,10,Eliaz Cruz,Bandera,84.37,197.31,104.33,188.24,489.88,Single-ply,SBD,M
Boys,89.81,11,Carlos Nandin,Del Rio,84.23,172.37,115.67,197.31,485.34,Single-ply,SBD,M
Boys,89.81,12,Randy Narvaez,San Antonio Southwest,82.19,156.49,113.4,185.97,455.86,Single-ply,SBD,M
Boys,89.81,13,Alex Hardin,Comal Canyon Lake,84.41,181.44,102.06,170.1,453.59,Single-ply,SBD,M
Boys,89.81,14,Jacob Trevino,Del Rio,85.18,167.83,99.79,163.29,430.91,Single-ply,SBD,M
Boys,89.81,15,Cody Miller #3,Ingram Moore,85.09,154.22,83.91,183.7,421.84,Single-ply,SBD,M
Boys,89.81,16,Kalob Son,Bandera,89.63,158.76,97.52,163.29,419.57,Single-ply,SBD,M
Boys,89.81,17,Isaiah Santoya,Natalia,86.77,151.95,81.65,174.63,408.23,Single-ply,SBD,M
Boys,89.81,18,Ian Roger,Comal Canyon Lake,82.51,147.42,86.18,165.56,399.16,Single-ply,SBD,M
Boys,89.81,19,Austin Guzman,Natalia,88.09,149.69,88.45,161.03,399.16,Single-ply,SBD,M
Boys,89.81,20,Andrew Estrada,San Antonio Southwest,82.78,142.88,90.72,158.76,392.36,Single-ply,SBD,M
Boys,89.81,21,Joeseph Rodriguez,San Antonio Kennedy,84.19,92.99,56.7,142.88,292.57,Single-ply,SBD,M
Boys,89.81,DQ,Liam Demarchi,Bandera,85.37,,,,,Single-ply,SBD,M
Boys,99.79,1,Michael Martinez #10,Natalia,96.71,274.42,127.01,224.53,625.96,Single-ply,SBD,M
Boys,99.79,2,Nick Propst,San Antonio Southwest,98.84,219.99,147.42,215.46,582.87,Single-ply,SBD,M
Boys,99.79,3,Jeremiah Gomez,Natalia,92.9,204.12,124.74,210.92,539.77,Single-ply,SBD,M
Boys,99.79,4,Angel Aguilar,Bandera,93.67,188.24,140.61,208.65,537.51,Single-ply,SBD,M
Boys,99.79,5,Clark Griffin,San Antonio Southwest,96.12,208.65,117.93,208.65,535.24,Single-ply,SBD,M
Boys,99.79,6,Colton Perkins,Bandera,97.11,213.19,129.27,183.7,526.17,Single-ply,SBD,M
Boys,99.79,7,Braden Hodge,Comal Canyon Lake,99.02,188.24,142.88,181.44,512.56,Single-ply,SBD,M
Boys,99.79,8,Alex Aguilar #3,Marion,97.48,183.7,102.06,204.12,489.88,Single-ply,SBD,M
Boys,99.79,9,Isaiah Sanchez,Natalia,96.07,195.04,97.52,192.78,485.34,Single-ply,SBD,M
Boys,99.79,10,Dylan Lageschulte,Pleasanton,93.3,188.24,104.33,181.44,474,Single-ply,SBD,M
Boys,99.79,11,Romano Villanueva,San Antonio Kennedy,97.75,142.88,90.72,172.37,405.97,Single-ply,SBD,M
Boys,99.79,12,Jacob Delaney,Devine,99.29,131.54,79.38,140.61,351.53,Single-ply,SBD,M
Boys,99.79,13,Jonathon Rodriguez,San Antonio Kennedy,98.2,102.06,61.23,147.42,310.71,Single-ply,SBD,M
Boys,99.79,DQ,Naythen Cardenas,San Antonio Southwest Legacy,96.66,199.58,,,,Single-ply,SBD,M
Boys,99.79,DQ,Tristan Medrano,Del Rio,97.2,199.58,145.15,,,Single-ply,SBD,M
Boys,109.77,1,Uriel Arellano,Natalia,103.78,231.33,181.44,247.21,659.98,Single-ply,SBD,M
Boys,109.77,2,Garret Carver,Devine,108.23,240.4,192.78,226.8,659.98,Single-ply,SBD,M
Boys,109.77,3,Dustin Soto,Natalia,107.09,226.8,122.47,229.06,578.33,Single-ply,SBD,M
Boys,109.77,4,Abraham Rosas,Del Rio,107.68,204.12,122.47,226.8,553.38,Single-ply,SBD,M
Boys,109.77,5,Michael San Miguel,Pleasanton,104.19,231.33,106.59,183.7,521.63,Single-ply,SBD,M
Boys,109.77,6,Issac Salazar,Del Rio,108.23,170.1,106.59,183.7,460.4,Single-ply,SBD,M
Boys,109.77,7,Diego Hernandez,Natalia,103.69,163.29,104.33,174.63,442.25,Single-ply,SBD,M
Boys,109.77,8,Juan Vera,Natalia,109.77,185.97,90.72,165.56,442.25,Single-ply,SBD,M
Boys,109.77,9,Artemio Hernandez,San Antonio Kennedy,100.47,138.35,88.45,133.81,360.61,Single-ply,SBD,M
Boys,109.77,10,Rudy Rodriguez,Devine,107.14,117.93,77.11,149.69,344.73,Single-ply,SBD,M
Boys,109.77,11,Pete Arguijo,Pleasanton,101.65,115.67,79.38,136.08,331.12,Single-ply,SBD,M
Boys,124.74,1,Francisco Uhl,San Antonio Southwest,116.53,244.94,195.04,265.35,705.34,Single-ply,SBD,M
Boys,124.74,2,Josh Almond,Comal Canyon Lake,118.12,272.16,167.83,226.8,666.78,Single-ply,SBD,M
Boys,124.74,3,Samson Montoya,Marion,120.84,213.19,142.88,226.8,582.87,Single-ply,SBD,M
Boys,124.74,4,Diego Hernandez,Devine,110.27,231.33,136.08,188.24,555.65,Single-ply,SBD,M
Boys,124.74,5,Isaiah Ulibarri,San Antonio Southwest Legacy,122.97,231.33,97.52,195.04,523.9,Single-ply,SBD,M
Boys,124.74,6,Bode Walters,Marion,122.15,204.12,124.74,174.63,503.49,Single-ply,SBD,M
Boys,124.74,7,Gabriel Aguirre,Del Rio,124.15,176.9,108.86,217.72,503.49,Single-ply,SBD,M
Boys,124.74,8,Spencer Johnson,Comal Canyon Lake,123.51,120.2,79.38,151.95,351.53,Single-ply,SBD,M
Boys,124.74,9,Manuel Reyna,San Antonio Kennedy,115.08,145.15,70.31,133.81,349.27,Single-ply,SBD,M
Boys,124.74,DQ,Fernando Martinez #4,San Antonio Southwest Legacy,120.52,235.87,,,,Single-ply,SBD,M
Boys,124.74+,1,Paul Billalobos,Natalia,124.96,274.42,129.27,238.14,641.83,Single-ply,SBD,M
Boys,124.74+,2,Arturo Lopez,San Antonio Southwest,131.95,247.21,154.22,238.14,639.57,Single-ply,SBD,M
Boys,124.74+,3,Danny Hernandez,Ingram Moore,132.49,233.6,154.22,242.67,630.49,Single-ply,SBD,M
Boys,124.74+,4,Ed Saldivar,Marion,129.95,179.17,136.08,213.19,528.44,Single-ply,SBD,M
Boys,124.74+,5,Thomas Ables,Pleasanton,143.43,204.12,102.06,167.83,474,Single-ply,SBD,M
